Data Exploration - The Chicago Dataset | Bryan Schafroth Portfolio
…
Not shown in this data but worth mentioning:

int is integers

dttm is date-time

lgl is logical

fctr is factors or categorical

chicago = as_tibble(readr::read_rds("../../static/data/chicago.rds"))

(chicago)

## # A tibble: 6,940 x 8
##    city   tmpd  dptp date       pm25tmean2 pm10tmean2 o3tmean2 no2tmean2
##    <chr> <dbl> <dbl> <date>          <dbl>      <dbl>    <dbl>     <dbl>
##  1 chic   31.5  31.5 1987-01-01         NA       34       4.25      20.0
##  2 chic   33    29.9 1987-01-02         NA       NA       3.30      23.2
##  3 chic   33    27.4 1987-01-03         NA       34.2     3.33      23.8
##  4 chic   29    28.6 1987-01-04         NA       47       4.38      30.4
##  5 chic   32    28.9 1987-01-05         NA       NA       4.75      30.3
##  6 chic   40    35.1 1987-01-06         NA       48       5.83      25.8
##  7 chic   34.5  26.8 1987-01-07         NA       41       9.29      20.6
##  8 chic   29    22   1987-01-08         NA       36      11.3       17.0
##  9 chic   26.5  29   1987-01-09         NA       33.3     4.5       23.4
## 10 chic   32.5  27.8 1987-01-10         NA       NA       4.96      19.5
## # ... with 6,930 more rows
…
select()

To view specific variables, I use the select() function. Perhaps this small dataset in not going to show the benefits of select(), however, with hundreds or thousands of variables, select() will prove a worthy function. Here in table 3, we can isolate the variables city through dptp very quickly.

select(chicago, 
       city:dptp)

## # A tibble: 6,940 x 3
##    city   tmpd  dptp
##    <chr> <dbl> <dbl>
##  1 chic   31.5  31.5
##  2 chic   33    29.9
##  3 chic   33    27.4
##  4 chic   29    28.6
##  5 chic   32    28.9
##  6 chic   40    35.1
##  7 chic   34.5  26.8
##  8 chic   29    22  
##  9 chic   26.5  29  
## 10 chic   32.5  27.8
## # ... with 6,930 more rows
…
chic
26.5
29.000

chic
32.5
27.750

In table 4, select() can also do the inverse of city:dptp and exclude those variables to display the remaining variables.

select(chicago, -(city:dptp))

## # A tibble: 6,940 x 5
##    date       pm25tmean2 pm10tmean2 o3tmean2 no2tmean2
##    <date>          <dbl>      <dbl>    <dbl>     <dbl>
##  1 1987-01-01         NA       34       4.25      20.0
##  2 1987-01-02         NA       NA       3.30      23.2
##  3 1987-01-03         NA       34.2     3.33      23.8
##  4 1987-01-04         NA       47       4.38      30.4
##  5 1987-01-05         NA       NA       4.75      30.3
##  6 1987-01-06         NA       48       5.83      25.8
##  7 1987-01-07         NA       41       9.29      20.6
##  8 1987-01-08         NA       36      11.3       17.0
##  9 1987-01-09         NA       33.3     4.5       23.4
## 10 1987-01-10         NA       NA       4.96      19.5
## # ... with 6,930 more rows
…
num_range()

one_of()

everything()

contains()

Lets find all the variables that end with the number 2 in table 5.

select(chicago, 
       ends_with("2")) 

## # A tibble: 6,940 x 4
##    pm25tmean2 pm10tmean2 o3tmean2 no2tmean2
##         <dbl>      <dbl>    <dbl>     <dbl>
##  1         NA       34       4.25      20.0
##  2         NA       NA       3.30      23.2
##  3         NA       34.2     3.33      23.8
##  4         NA       47       4.38      30.4
##  5         NA       NA       4.75      30.3
##  6         NA       48       5.83      25.8
##  7         NA       41       9.29      20.6
##  8         NA       36      11.3       17.0
##  9         NA       33.3     4.5       23.4
## 10         NA       NA       4.96      19.5
## # ... with 6,930 more rows
…
NA
NA
4.958333
19.54167

Let’s find all the variables that start with the letter “d” in table 6.

select(chicago, 
       starts_with("d"))

## # A tibble: 6,940 x 2
##     dptp date      
##    <dbl> <date>    
##  1  31.5 1987-01-01
##  2  29.9 1987-01-02
##  3  27.4 1987-01-03
##  4  28.6 1987-01-04
##  5  28.9 1987-01-05
##  6  35.1 1987-01-06
##  7  26.8 1987-01-07
##  8  22   1987-01-08
##  9  29   1987-01-09
## 10  27.8 1987-01-10
## # ... with 6,930 more rows
…
29.000
1987-01-09

27.750
1987-01-10

filter()

The filter() function is a way to find values in the data. Here the results are placed in table 7. Shown is filtering all pm25tmean2 variables that are greater than 30. We can do any combination of variables with specific parameters. The tibble output indicates there are 194 instances where pm25tmean2 is above a reading of 30.

filter(chicago, 
       pm25tmean2 > 30)

## # A tibble: 194 x 8
##    city   tmpd  dptp date       pm25tmean2 pm10tmean2 o3tmean2 no2tmean2
##    <chr> <dbl> <dbl> <date>          <dbl>      <dbl>    <dbl>     <dbl>
##  1 chic     23  21.9 1998-01-17       38.1       32.5     3.18      25.3
##  2 chic     28  25.8 1998-01-23       34.0       38.7     1.75      29.4
##  3 chic     55  51.3 1998-04-30       39.4       34      10.8       25.3
##  4 chic     59  53.7 1998-05-01       35.4       28.5    14.3       31.4
##  5 chic     57  52   1998-05-02       33.3       35      20.7       26.8
##  6 chic     57  56   1998-05-07       32.1       34.5    24.3       34.0
##  7 chic     75  65.8 1998-05-15       56.5       91      38.6       29.0
##  8 chic     61  59   1998-06-09       33.8       26      17.9       25.5
##  9 chic     73  60.3 1998-07-13       30.3       64.5    37.0       37.9
## 10 chic     78  67.1 1998-07-14       41.4       75      40.1       32.6
## # ... with 184 more rows
…
## # A tibble: 1 x 2
##   minValue maxValue
##      <dbl>    <dbl>
## 1     80.5       92

arrange()

Table 10 shows the arrange() function and sorts the o3tmean2 variable. Default from lowest to highest numerical values.

chicago %>%
  arrange(o3tmean2)

## # A tibble: 6,940 x 8
##    city   tmpd  dptp date       pm25tmean2 pm10tmean2 o3tmean2 no2tmean2
##    <chr> <dbl> <dbl> <date>          <dbl>      <dbl>    <dbl>     <dbl>
##  1 chic   43.5  39   1994-12-05       NA         47.5    0.153      27.2
##  2 chic   32.5  34.4 1994-12-15       NA         43.5    0.361      30.5
##  3 chic   38.5  38.5 1993-12-17       NA         16      0.427      23.9
##  4 chic   23.5  16.9 1994-12-13       NA         48.5    0.492      33.3
##  5 chic   34    33.9 2001-01-14       28         22      0.5        26.2
##  6 chic   33    37.5 1995-01-11       NA         68      0.517      37.8
##  7 chic   40.5  44.9 1993-01-03       NA         21.5    0.528      19.8
##  8 chic   61    59.3 1998-12-04       31.6       42.5    0.556      24.4
##  9 chic   35.5  34   1993-01-21       NA         19      0.653      27.0
## 10 chic   36.5  36   1994-12-16       NA         41      0.694      34.4
## # ... with 6,930 more rows
…
chic
36.5
36.000
1994-12-16
NA
41.0
0.6944444
34.39167

Table 11 sorts the tmpd variable lowest to highest.

chicago %>%
  arrange(tmpd)

## # A tibble: 6,940 x 8
##    city   tmpd   dptp date       pm25tmean2 pm10tmean2 o3tmean2 no2tmean2
##    <chr> <dbl>  <dbl> <date>          <dbl>      <dbl>    <dbl>     <dbl>
##  1 chic  -16   -25.6  1994-01-18         NA       27      14.7       22.1
##  2 chic  -12   -18.9  1996-02-03         NA       25.6     7.74      30.1
##  3 chic  -10.5 -23.1  1994-01-15         NA       36      12.0       24.7
##  4 chic  -10.5 -21    1996-02-02         NA       35       9.56      31.5
##  5 chic   -8    -2.38 1994-01-19         NA       24.5     4.86      36.6
##  6 chic   -6.5 -15.8  1988-01-05         NA       24      13.2       17.2
##  7 chic   -6.5 -23    1989-12-21         NA       49      16.7       19.5
##  8 chic   -6    -7.88 1996-02-04         NA       21       9.58      30.0
##  9 chic   -5.5 -15.1  1988-01-06         NA       75       7.15      27.7
## 10 chic   -4.5 -11.9  1989-12-22         NA       49       9.42      29.4
## # ... with 6,930 more rows
…
chic
-4.5
-11.875
1989-12-22
NA
49.00000
9.416667
29.41667

In table 12 we can sort the tmpd variable in descending order by adding the parameter to the arrange() function.

chicago %>%
  arrange(desc(tmpd))

## # A tibble: 6,940 x 8
##    city   tmpd  dptp date       pm25tmean2 pm10tmean2 o3tmean2 no2tmean2
##    <chr> <dbl> <dbl> <date>          <dbl>      <dbl>    <dbl>     <dbl>
##  1 chic   92    76.4 1995-07-13       NA         92.5     58.5      27.3
##  2 chic   91.5  75.6 1995-07-14       NA         54.5     52.0      24.8
##  3 chic   90    77.1 1999-07-30       NA         54       34.2      27.5
##  4 chic   90    70.9 2005-07-24       22.0       44       47.6      12.0
##  5 chic   89.5  70.4 1988-08-02       NA         67       49.8      25.9
##  6 chic   89    71.1 1988-08-01       NA         67.2     44.1      26.0
##  7 chic   88.5  70.2 1988-06-20       NA         88       61.7      25.6
##  8 chic   88    67.4 1988-08-03       NA         65       40.6      27.7
##  9 chic   88    66.4 1988-08-17       NA         71       39.3      23.5
## 10 chic   88    71.2 1991-07-22       NA         70       34.9      24.6
## # ... with 6,930 more rows
…
rename()

The rename() function will be beneficial if you need to give the variables a descriptive name. In this example, table 13, I shorten the variable name and process these all in one line of code.

chicago %>%
  rename(temp=tmpd, 
         dewpoint=dptp, 
         pm25=pm25tmean2, 
         pm10=pm10tmean2, 
         O3=o3tmean2, 
         NO2=no2tmean2) 

## # A tibble: 6,940 x 8
##    city   temp dewpoint date        pm25  pm10    O3   NO2
##    <chr> <dbl>    <dbl> <date>     <dbl> <dbl> <dbl> <dbl>
##  1 chic   31.5     31.5 1987-01-01    NA  34    4.25  20.0
##  2 chic   33       29.9 1987-01-02    NA  NA    3.30  23.2
##  3 chic   33       27.4 1987-01-03    NA  34.2  3.33  23.8
##  4 chic   29       28.6 1987-01-04    NA  47    4.38  30.4
##  5 chic   32       28.9 1987-01-05    NA  NA    4.75  30.3
##  6 chic   40       35.1 1987-01-06    NA  48    5.83  25.8
##  7 chic   34.5     26.8 1987-01-07    NA  41    9.29  20.6
##  8 chic   29       22   1987-01-08    NA  36   11.3   17.0
##  9 chic   26.5     29   1987-01-09    NA  33.3  4.5   23.4
## 10 chic   32.5     27.8 1987-01-10    NA  NA    4.96  19.5
## # ... with 6,930 more rows
…
mutate()

In this example, the mutate() function adds a new variable to the data. In this case, we can take the mean of no2tmean2 and subtract it from itself to standardize the variable. This will show if the mean is above or below the average of 25.23 (taken from table 2). In this one line, I calculated and created a new variable for the data called no2detrend. A positive detrend indicates above the mean, and a negative value indicates below the mean for that individual record. See table 14.

smlchicago <- chicago %>%
  select(tmpd, dptp, o3tmean2, no2tmean2)

smlchicago %>%
  mutate(nO2detrend = no2tmean2 - mean(no2tmean2, na.rm=TRUE))

## # A tibble: 6,940 x 5
##     tmpd  dptp o3tmean2 no2tmean2 nO2detrend
##    <dbl> <dbl>    <dbl>     <dbl>      <dbl>
##  1  31.5  31.5     4.25      20.0     -5.24 
##  2  33    29.9     3.30      23.2     -2.04 
##  3  33    27.4     3.33      23.8     -1.42 
##  4  29    28.6     4.38      30.4      5.20 
##  5  32    28.9     4.75      30.3      5.10 
##  6  40    35.1     5.83      25.8      0.540
##  7  34.5  26.8     9.29      20.6     -4.65 
##  8  29    22      11.3       17.0     -8.19 
##  9  26.5  29       4.5       23.4     -1.84 
## 10  32.5  27.8     4.96      19.5     -5.69 
## # ... with 6,930 more rows
…
transmute()

The transmute() does the same as above but breaks the new variables out into a tibble or data frame. In table 15, the three new variables create a new tibble. The temperature tmpd variable now gives a better idea of where it is in comparison to the mean average temperature.

transmute(chicago, 
          tmpdS = tmpd - mean(tmpd, na.rm=TRUE), 
          o3detrend = o3tmean2 - mean(o3tmean2, na.rm=TRUE), 
          nO2detrend = no2tmean2 - mean(no2tmean2, na.rm=TRUE))

## # A tibble: 6,940 x 3
##    tmpdS o3detrend nO2detrend
##    <dbl>     <dbl>      <dbl>
##  1 -18.8    -15.2      -5.24 
##  2 -17.3    -16.1      -2.04 
##  3 -17.3    -16.1      -1.42 
##  4 -21.3    -15.1       5.20 
##  5 -18.3    -14.7       5.10 
##  6 -10.3    -13.6       0.540
##  7 -15.8    -10.1      -4.65 
##  8 -21.3     -8.14     -8.19 
##  9 -23.8    -14.9      -1.84 
## 10 -17.8    -14.5      -5.69 
## # ... with 6,930 more rows
…
