Exploratory Data Analysis - EPA Ozone Data | Bryan Schafroth Portfolio
…
ozn %>%
  summarize(Total_Long = n_distinct(Longitude))

## # A tibble: 1 x 1
##   Total_Long
##        <int>
## 1       1306

I break down all the counties by latitude and longitude based on the variable’s 1,306 unique longitude values. This assumes where the ozone monitors are positioned.

ozn %>%
  group_by(County_Name, Latitude, Longitude) %>%
  summarize(Lat = n_distinct(Longitude))

## # A tibble: 1,306 x 4
## # Groups:   County_Name, Latitude [1,305]
##    County_Name Latitude Longitude   Lat
##    <chr>          <dbl>     <dbl> <int>
##  1 Abbeville       34.3     -82.4     1
##  2 Ada             43.6    -116.      1
##  3 Ada             43.6    -116.      1
##  4 Adair           35.8     -94.7     1
##  5 Adams           39.8    -105.      1
##  6 Adams           39.9     -91.3     1
##  7 Adams           39.9     -77.3     1
##  8 Adams           39.9     -77.3     1
##  9 Aiken           33.3     -81.8     1
## 10 Alachua         29.5     -82.3     1
## # ... with 1,296 more rows
…
Alabama
Baldwin
0.046

A more detailed look at the State, County, Count of measurements, and Mean Ozone reading shown in this table.

  summarize(group_by(ozn, 
                     State_Name, 
                     County_Name), 
            count = n(), 
            meanOzone = mean(Sample_Measurement))

## # A tibble: 797 x 4
## # Groups:   State_Name [53]
##    State_Name County_Name count meanOzone
##    <chr>      <chr>       <int>     <dbl>
##  1 Alabama    Baldwin      5492    0.0293
##  2 Alabama    Colbert      5613    0.0249
##  3 Alabama    DeKalb       8232    0.0320
##  4 Alabama    Elmore       5585    0.0292
##  5 Alabama    Etowah       5578    0.0261
##  6 Alabama    Houston      5562    0.0272
##  7 Alabama    Jefferson   41443    0.0262
##  8 Alabama    Madison     11678    0.0300
##  9 Alabama    Mobile      10874    0.0259
## 10 Alabama    Montgomery   5560    0.0282
## # ... with 787 more rows

Here we can summarize the State and Counties with the lowest Mean Ozone readings. Puerto Rico and Alaska, along with Oklahoma, Oregon, Washington, etc. have the lowest readings of Mean Ozone in this data set. The arrange() function does this in ascending order by default.

ozn %>%
  group_by(State_Name, County_Name) %>%
  summarize(count = n(), MeanO = mean(Sample_Measurement)) %>%
  arrange(MeanO)

## # A tibble: 797 x 4
## # Groups:   State_Name [53]
##    State_Name  County_Name          count   MeanO
##    <chr>       <chr>                <int>   <dbl>
##  1 Puerto Rico Catano                8038 0.00449
##  2 Puerto Rico Bayamon               2794 0.00852
##  3 Alaska      Fairbanks North Star  8575 0.0133 
##  4 Puerto Rico Juncos                8180 0.0135 
##  5 Oklahoma    Caddo                 7507 0.0175 
##  6 Oregon      Washington            9215 0.0196 
##  7 Washington  Whatcom               3098 0.0201 
##  8 Louisiana   West Baton Rouge      8635 0.0201 
##  9 New Jersey  Warren                8620 0.0201 
## 10 Georgia     DeKalb                8594 0.0205 
## # ... with 787 more rows

This table displays the highest Mean Ozone readings per State and County in this data set. Colorado, California, and Wyoming are at the top, with Utah and Nevada.

ozn %>%
  group_by(State_Name, County_Name) %>%
  summarize(count = n(), MeanO = mean(Sample_Measurement)) %>%
  arrange(desc(MeanO))

## # A tibble: 797 x 4
## # Groups:   State_Name [53]
##    State_Name County_Name count  MeanO
##    <chr>      <chr>       <int>  <dbl>
##  1 Colorado   Clear Creek  6447 0.0502
##  2 California Mariposa    12130 0.0485
##  3 California Nevada      12748 0.0482
##  4 Colorado   Park         8127 0.0480
##  5 Wyoming    Albany       8056 0.0474
##  6 Colorado   Chaffee      3748 0.0473
##  7 California Inyo         8667 0.0447
##  8 Utah       San Juan    10794 0.0444
##  9 California El Dorado   16521 0.0436
## 10 Nevada     Elko         3431 0.0435
## # ... with 787 more rows

This summary table shows the number of readings taken per day for the entire year across all states. The summary indicates that not every monitoring station records consistently.

ozn %>%
  group_by(Date_Local) %>%
  summarize(readings_day = n())

## # A tibble: 365 x 2
##    Date_Local readings_day
##    <date>            <int>
##  1 2014-01-01        18115
##  2 2014-01-02        17901
##  3 2014-01-03        17992
##  4 2014-01-04        17929
##  5 2014-01-05        17769
##  6 2014-01-06        17561
##  7 2014-01-07        17433
##  8 2014-01-08        17706
##  9 2014-01-09        17820
## 10 2014-01-10        18156
## # ... with 355 more rows
…
ozn %>%
  summarize(Total_n_States = n_distinct(State_Name))

## # A tibble: 1 x 1
##   Total_n_States
##            <int>
## 1             53

Below is the table with each State name. Looking through the table are the 48 contiguous States, including Alaska and Hawaii. Then the District of Columbia, Puerto Rico, and Country of Mexico totaling 53. This information can lead us to further analysis using the latitude and longitude to find data that we may desire for continued research, particularly the “Country of Mexico”; is that measurement station desirable in our analysis? Or maybe we are only interested in the continental U.S. for analysis.

ozn %>%
  group_by(State_Name) %>%
  distinct(State_Name)

## # A tibble: 53 x 1
## # Groups:   State_Name [53]
##    State_Name          
##    <chr>               
##  1 Alabama             
##  2 Alaska              
##  3 Arizona             
##  4 Arkansas            
##  5 California          
##  6 Colorado            
##  7 Connecticut         
##  8 Delaware            
##  9 District Of Columbia
## 10 Florida             
## # ... with 43 more rows

The “Sample_Measurement” can be further analyzed by itemizing each State by breaking out the measurements into quantiles of 10%, 25%, 50%, 75%, and 99%.

probs = c(0.01, 0.25, 0.5, 0.75, 0.99)
ozn %>%
  group_by(State_Name) %>%
  summarize(p =list(probs), q = list(quantile(Sample_Measurement, probs))) %>%
  unnest(cols = c(p, q))

## # A tibble: 265 x 3
##    State_Name     p     q
##    <chr>      <dbl> <dbl>
##  1 Alabama     0.01 0    
##  2 Alabama     0.25 0.014
##  3 Alabama     0.5  0.027
##  4 Alabama     0.75 0.039
##  5 Alabama     0.99 0.062
##  6 Alaska      0.01 0    
##  7 Alaska      0.25 0.011
##  8 Alaska      0.5  0.022
##  9 Alaska      0.75 0.032
## 10 Alaska      0.99 0.051
## # ... with 255 more rows
…
